[
 {
  "Code": "6201",
  "Score": 0.95,
  "Title": "Ontwikkelen, produceren en uitgeven van software"
 },
 {
  "Code": "6202",
  "Score": 0.95,
  "Title": "Advisering en ondersteuning op het gebied van informatietechnologie"
 },
 {
  "Code": "6203",
  "Score": 0.95,
  "Title": "Beheer van computerfaciliteiten"
 },
 {
  "Code": "6209",
  "Score": 0.95,
  "Title": "Overige dienstverlenende activiteiten op het gebied van informatietechnologie"
 }
]